<?xml version="1.0" encoding="UTF-8"?>
<session version="1.0">
<refactoring accessors="true" comment="Delete element from project &apos;House&apos;&#x0D;&#x0A;- Original project: &apos;House&apos;&#x0D;&#x0A;- Original element: &apos;House.java&apos;" description="Delete element" element1="/src&lt;{House.java" elements="1" flags="589830" id="org.eclipse.jdt.ui.delete" resources="0" stamp="1395960356420" subPackages="false" version="1.0"/>
</session>